{
	"clientID": "/M3nicivJ/bXnTS/sxeNIA==",
	"serverToken": "1@dM2K05h+nfAYFzXJX+tZWpQGxygrbteRgJWwmazZ0KKgM8Ay6jL9eniw7rWbT0h3buYow9N+vW5bQA==",
	"clientToken": "4m+NMK4ujqXgdbTauR+TPDCCihncUrbL6GdddU4KO7Y=",
	"encKey": "MR2wIXvScCL25ySNfNs+cLqFLHD8+yo/RMZj2BXLM/Y=",
	"macKey": "6GJpkuMQCJiEWoud5IKQsKWfQjyIIBjRbXOe0MpkZiI="
}